-------------------------------------------
lstm(0.3) -> pool -> dropout(0.5) -> softmax
batch: 128
epochs: 32
-------------------------------------------
loss: 1.1812 - acc: 0.7242 - val_loss: 1.9100 - val_acc: 0.4143
-------------------------------------------
loss: 1.8978992278181661
acc: 0.3543307077227615
-------------------------------------------

-------------------------------------------
lstm(0.3) -> dropout(0.5) -> softmax
batch: 128
epochs: 32
-------------------------------------------
loss: 0.9792 - acc: 0.7642 - val_loss: 2.2404 - val_acc: 0.3894
-------------------------------------------
loss: 2.0056022161573877
acc: 0.38320209934642624
-------------------------------------------

-------------------------------------------
lstm(0.5) -> dropout(0.5) -> softmax
batch: 128
epochs: 32
-------------------------------------------
-------------------------------------------
loss: 1.1102 - acc: 0.7292 - val_loss: 2.1525 - val_acc: 0.3710
-------------------------------------------
loss: 1.9530400679180315
acc: 0.36482939648190194
-------------------------------------------
